76960 50512 16509 98610 49494 
66790 12123 76258 86055 20185 
12263 60699 64552 91301 49291 
13723 82793 92786 68027 83789 
64378 75919 17733 33762 06890 
47506 97824 78717 76583 93352 
15077 78787 27078